{
  "head": {
    "vars": [ "uri" , "code" , "mapped_code" , "iso639_1" , "iso639_3" ]
  } ,
  "results": {
    "bindings": [
      {
        "uri": { "type": "uri" , "value": "http://publications.europa.eu/resource/authority/language/ENG" } ,
        "code": { "type": "literal" , "value": "ENG" } ,
        "iso639_1": { "type": "literal" , "value": "en" } ,
        "iso639_3": { "type": "literal" , "value": "eng" }
      } ,
      {
        "uri": { "type": "uri" , "value": "http://publications.europa.eu/resource/authority/language/GLE" } ,
        "code": { "type": "literal" , "value": "GLE" } ,
        "mapped_code": { "type": "literal" , "value": "IRL" } ,
        "iso639_1": { "type": "literal" , "value": "ga" } ,
        "iso639_3": { "type": "literal" , "value": "gle" }
      } ,
      {
        "uri": { "type": "uri" , "value": "http://publications.europa.eu/resource/authority/language/MLT" } ,
        "code": { "type": "literal" , "value": "MLT" } ,
        "mapped_code": { "type": "literal" , "value": "MT" } ,
        "iso639_1": { "type": "literal" , "value": "mt" } ,
        "iso639_3": { "type": "literal" , "value": "mlt" }
      } ,
      {
        "uri": { "type": "uri" , "value": "http://publications.europa.eu/resource/authority/language/HUN" } ,
        "code": { "type": "literal" , "value": "HUN" } ,
        "mapped_code": { "type": "literal" , "value": "HU" } ,
        "iso639_1": { "type": "literal" , "value": "hu" } ,
        "iso639_3": { "type": "literal" , "value": "hun" }
      } ,
      {
        "uri": { "type": "uri" , "value": "http://publications.europa.eu/resource/authority/language/CES" } ,
        "code": { "type": "literal" , "value": "CES" } ,
        "mapped_code": { "type": "literal" , "value": "TCHEQUE" } ,
        "iso639_1": { "type": "literal" , "value": "cs" } ,
        "iso639_3": { "type": "literal" , "value": "ces" }
      } ,
      {
        "uri": { "type": "uri" , "value": "http://publications.europa.eu/resource/authority/language/POR" } ,
        "code": { "type": "literal" , "value": "POR" } ,
        "mapped_code": { "type": "literal" , "value": "PT" } ,
        "iso639_1": { "type": "literal" , "value": "pt" } ,
        "iso639_3": { "type": "literal" , "value": "por" }
      } ,
      {
        "uri": { "type": "uri" , "value": "http://publications.europa.eu/resource/authority/language/BUL" } ,
        "code": { "type": "literal" , "value": "BUL" } ,
        "mapped_code": { "type": "literal" , "value": "BG" } ,
        "iso639_1": { "type": "literal" , "value": "bg" } ,
        "iso639_3": { "type": "literal" , "value": "bul" }
      } ,
      {
        "uri": { "type": "uri" , "value": "http://publications.europa.eu/resource/authority/language/RON" } ,
        "code": { "type": "literal" , "value": "RON" } ,
        "mapped_code": { "type": "literal" , "value": "RO" } ,
        "iso639_1": { "type": "literal" , "value": "ro" } ,
        "iso639_3": { "type": "literal" , "value": "ron" }
      } ,
      {
        "uri": { "type": "uri" , "value": "http://publications.europa.eu/resource/authority/language/SLV" } ,
        "code": { "type": "literal" , "value": "SLV" } ,
        "mapped_code": { "type": "literal" , "value": "SN" } ,
        "iso639_1": { "type": "literal" , "value": "sl" } ,
        "iso639_3": { "type": "literal" , "value": "slv" }
      } ,
      {
        "uri": { "type": "uri" , "value": "http://publications.europa.eu/resource/authority/language/ITA" } ,
        "code": { "type": "literal" , "value": "ITA" } ,
        "mapped_code": { "type": "literal" , "value": "IT" } ,
        "iso639_1": { "type": "literal" , "value": "it" } ,
        "iso639_3": { "type": "literal" , "value": "ita" }
      } ,
      {
        "uri": { "type": "uri" , "value": "http://publications.europa.eu/resource/authority/language/SWE" } ,
        "code": { "type": "literal" , "value": "SWE" } ,
        "mapped_code": { "type": "literal" , "value": "SV" } ,
        "iso639_1": { "type": "literal" , "value": "sv" } ,
        "iso639_3": { "type": "literal" , "value": "swe" }
      } ,
      {
        "uri": { "type": "uri" , "value": "http://publications.europa.eu/resource/authority/language/MOL" } ,
        "code": { "type": "literal" , "value": "MOL" } ,
        "mapped_code": { "type": "literal" , "value": "MO" } ,
        "iso639_1": { "type": "literal" , "value": "mo" } ,
        "iso639_3": { "type": "literal" , "value": "mol" }
      } ,
      {
        "uri": { "type": "uri" , "value": "http://publications.europa.eu/resource/authority/language/SLK" } ,
        "code": { "type": "literal" , "value": "SLK" } ,
        "mapped_code": { "type": "literal" , "value": "SK" } ,
        "iso639_1": { "type": "literal" , "value": "sk" } ,
        "iso639_3": { "type": "literal" , "value": "slk" }
      } ,
      {
        "uri": { "type": "uri" , "value": "http://publications.europa.eu/resource/authority/language/LIT" } ,
        "code": { "type": "literal" , "value": "LIT" } ,
        "mapped_code": { "type": "literal" , "value": "LT" } ,
        "iso639_1": { "type": "literal" , "value": "lt" } ,
        "iso639_3": { "type": "literal" , "value": "lit" }
      } ,
      {
        "uri": { "type": "uri" , "value": "http://publications.europa.eu/resource/authority/language/LAV" } ,
        "code": { "type": "literal" , "value": "LAV" } ,
        "mapped_code": { "type": "literal" , "value": "LV" } ,
        "iso639_1": { "type": "literal" , "value": "lv" } ,
        "iso639_3": { "type": "literal" , "value": "lav" }
      } ,
      {
        "uri": { "type": "uri" , "value": "http://publications.europa.eu/resource/authority/language/NLD" } ,
        "code": { "type": "literal" , "value": "NLD" } ,
        "mapped_code": { "type": "literal" , "value": "NL" } ,
        "iso639_1": { "type": "literal" , "value": "nl" } ,
        "iso639_3": { "type": "literal" , "value": "nld" }
      } ,
      {
        "uri": { "type": "uri" , "value": "http://publications.europa.eu/resource/authority/language/SPA" } ,
        "code": { "type": "literal" , "value": "SPA" } ,
        "mapped_code": { "type": "literal" , "value": "ES" } ,
        "iso639_1": { "type": "literal" , "value": "es" } ,
        "iso639_3": { "type": "literal" , "value": "spa" }
      } ,
      {
        "uri": { "type": "uri" , "value": "http://publications.europa.eu/resource/authority/language/DAN" } ,
        "code": { "type": "literal" , "value": "DAN" } ,
        "mapped_code": { "type": "literal" , "value": "DK" } ,
        "iso639_1": { "type": "literal" , "value": "da" } ,
        "iso639_3": { "type": "literal" , "value": "dan" }
      } ,
      {
        "uri": { "type": "uri" , "value": "http://publications.europa.eu/resource/authority/language/ELL" } ,
        "code": { "type": "literal" , "value": "ELL" } ,
        "mapped_code": { "type": "literal" , "value": "GR" } ,
        "iso639_1": { "type": "literal" , "value": "el" } ,
        "iso639_3": { "type": "literal" , "value": "ell" }
      } ,
      {
        "uri": { "type": "uri" , "value": "http://publications.europa.eu/resource/authority/language/FIN" } ,
        "code": { "type": "literal" , "value": "FIN" } ,
        "mapped_code": { "type": "literal" , "value": "FI" } ,
        "iso639_1": { "type": "literal" , "value": "fi" } ,
        "iso639_3": { "type": "literal" , "value": "fin" }
      } ,
      {
        "uri": { "type": "uri" , "value": "http://publications.europa.eu/resource/authority/language/DEU" } ,
        "code": { "type": "literal" , "value": "DEU" } ,
        "mapped_code": { "type": "literal" , "value": "DE" } ,
        "iso639_1": { "type": "literal" , "value": "de" } ,
        "iso639_3": { "type": "literal" , "value": "deu" }
      } ,
      {
        "uri": { "type": "uri" , "value": "http://publications.europa.eu/resource/authority/language/EST" } ,
        "code": { "type": "literal" , "value": "EST" } ,
        "mapped_code": { "type": "literal" , "value": "EW" } ,
        "iso639_1": { "type": "literal" , "value": "et" } ,
        "iso639_3": { "type": "literal" , "value": "est" }
      } ,
      {
        "uri": { "type": "uri" , "value": "http://publications.europa.eu/resource/authority/language/POL" } ,
        "code": { "type": "literal" , "value": "POL" } ,
        "mapped_code": { "type": "literal" , "value": "PL" } ,
        "iso639_1": { "type": "literal" , "value": "pl" } ,
        "iso639_3": { "type": "literal" , "value": "pol" }
      } ,
      {
        "uri": { "type": "uri" , "value": "http://publications.europa.eu/resource/authority/language/FRA" } ,
        "code": { "type": "literal" , "value": "FRA" } ,
        "mapped_code": { "type": "literal" , "value": "FR" } ,
        "iso639_1": { "type": "literal" , "value": "fr" } ,
        "iso639_3": { "type": "literal" , "value": "fra" }
      }
    ]
  }
}
